PM566 Final Project
…
What percentage of Los Angeles County is it hardest to obtain
affordable fresh foods (greater than 20 miles) as of 2019?

and What percentage of Los Angeles County is it easiest to obtain
affordable fresh foods (less than one mile) as of 2019?

Methods

My data was acquired from the USDA Economic Research Service Website
(https://www.ers.usda.gov/data-products/food-access-research-atlas/download-the-data/#Current%20Version).

Read in data

## # A tibble: 2,622 × 12
##    Census…¹ State County Pop2010 LA1an…² LAhal…³ LA1an…⁴ LAPOP…⁵ LAPOP…⁶ LAPOP…⁷
##       <dbl> <chr> <chr>    <dbl>   <dbl>   <dbl>   <dbl> <chr>   <chr>   <chr>  
##  1   6.04e9 Cali… Los A…    4731       0       1       0 115     3462    115    
##  2   6.04e9 Cali… Los A…    3664       1       1       1 1704    3661    1704   
##  3   6.04e9 Cali… Los A…    5990       0       1       0 NULL    5517    NULL   
##  4   6.04e9 Cali… Los A…    3363       0       1       0 NULL    2587    NULL   
##  5   6.04e9 Cali… Los A…    4199       0       1       0 15      739     15     
##  6   6.04e9 Cali… Los A…    3903       0       1       0 323     2481    323    
##  7   6.04e9 Cali… Los A…    1740       0       1       0 256     1301    256    
##  8   6.04e9 Cali… Los A…    3648       1       1       1 3576    3648    3576   
##  9   6.04e9 Cali… Los A…    1731       1       1       1 1731    1731    1731   
## 10   6.04e9 Cali… Los A…    3851       1       1       1 1064    2536    1064   
## # … with 2,612 more rows, 2 more variables: LowIncomeTracts <dbl>,
## #   HUNVFlag <dbl>, and abbreviated variable names ¹​CensusTract, ²​LA1and10,
## #   ³​LAhalfand10, ⁴​LA1and20, ⁵​LAPOP1_10, ⁶​LAPOP05_10, ⁷​LAPOP1_20

Clean Data

## # A tibble: 2,334 × 12
##    Census…¹ State County Pop2010 LA1an…² LAhal…³ LA1an…⁴ LAPOP…⁵ LAPOP…⁶ LAPOP…⁷
##       <dbl> <chr> <chr>    <dbl>   <dbl>   <dbl>   <dbl> <chr>   <chr>   <chr>  
##  1   6.04e9 Cali… Los A…    4731       0       1       0 115     3462    115    
##  2   6.04e9 Cali… Los A…    3664       1       1       1 1704    3661    1704   
##  3   6.04e9 Cali… Los A…    5990       0       1       0 NULL    5517    NULL   
##  4   6.04e9 Cali… Los A…    3363       0       1       0 NULL    2587    NULL   
##  5   6.04e9 Cali… Los A…    4199       0       1       0 15      739     15     
##  6   6.04e9 Cali… Los A…    3903       0       1       0 323     2481    323    
##  7   6.04e9 Cali… Los A…    1740       0       1       0 256     1301    256    
##  8   6.04e9 Cali… Los A…    3648       1       1       1 3576    3648    3576   
##  9   6.04e9 Cali… Los A…    1731       1       1       1 1731    1731    1731   
## 10   6.04e9 Cali… Los A…    3851       1       1       1 1064    2536    1064   
## # … with 2,324 more rows, 2 more variables: LowIncomeTracts <dbl>,
## #   HUNVFlag <dbl>, and abbreviated variable names ¹​CensusTract, ²​LA1and10,
## #   ³​LAhalfand10, ⁴​LA1and20, ⁵​LAPOP1_10, ⁶​LAPOP05_10, ⁷​LAPOP1_20
…
